{"status":"Success","statusCode":200,"errorDescription":"","error":"null","data":{"summary":{"total":4683,"query":"","sortOptions":[{"id":"multiple_sort","label":"Relevance"},{"id":"schemename-asc","label":"Scheme Name (A->Z)"},{"id":"schemename-desc","label":"Scheme Name (Z->A)"}],"appliedFilters":[],"disabledFilters":[]},"facets":[{"identifier":"beneficiaryState","label":"State","display":"ComboBoxFacet","type":"RefinementSelectFacet","entries":[{"label":"Gujarat","count":644},{"label":"All","count":642},{"label":"Uttarakhand","count":447},{"label":"Madhya Pradesh","count":290},{"label":"Puducherry","count":271},{"label":"Goa","count":270},{"label":"Haryana","count":247},{"label":"Tamil Nadu","count":235},{"label":"Rajasthan","count":158},{"label":"Bihar","count":114},{"label":"West Bengal","count":109},{"label":"Chhattisgarh","count":108},{"label":"Jharkhand","count":97},{"label":"Meghalaya","count":86},{"label":"Odisha","count":85},{"label":"Maharashtra","count":84},{"label":"Assam","count":83},{"label":"Kerala","count":83},{"label":"Himachal Pradesh","count":65},{"label":"Karnataka","count":57},{"label":"Dadra & Nagar Haveli and Daman & Diu","count":56},{"label":"Andhra Pradesh","count":52},{"label":"Delhi","count":49},{"label":"Jammu and Kashmir","count":48},{"label":"Uttar Pradesh","count":47},{"label":"Arunachal Pradesh","count":44},{"label":"Tripura","count":43},{"label":"Punjab","count":41},{"label":"Manipur","count":33},{"label":"Sikkim","count":28},{"label":"Nagaland","count":25},{"label":"Mizoram","count":24},{"label":"Telangana","count":23},{"label":"Chandigarh","count":20},{"label":"Andaman and Nicobar Islands","count":19},{"label":"Lakshadweep","count":9}]},{"identifier":"schemeCategory","label":"Scheme Category","display":"ListFacet","type":"RefinementSelectFacet","entries":[{"label":"Social welfare & Empowerment","count":1468},{"label":"Education & Learning","count":1091},{"label":"Agriculture,Rural & Environment","count":837},{"label":"Business & Entrepreneurship","count":736},{"label":"Women and Child","count":463},{"label":"Skills & Employment","count":390},{"label":"Banking,Financial Services and Insurance","count":322},{"label":"Health & Wellness","count":285},{"label":"Sports & Culture","count":259},{"label":"Housing & Shelter","count":130},{"label":"Science, IT & Communications","count":111},{"label":"Transport & Infrastructure","count":99},{"label":"Travel & Tourism","count":94},{"label":"Utility & Sanitation","count":58},{"label":"Public Safety,Law & Justice","count":32}]},{"identifier":"gender","label":"Gender","display":"ListFacet","type":"RefinementSelectFacet","entries":[{"label":"All","count":3858},{"label":"Female","count":785},{"label":"Male","count":345},{"label":"Transgender","count":32}]},{"identifier":"age-general","label":"Age","display":"ComboBoxFacet","type":"RangeFacet","entries":[{"label":0,"count":673},{"label":10,"count":3808},{"label":20,"count":3817},{"label":30,"count":3727},{"label":40,"count":3566},{"label":50,"count":3295},{"label":60,"count":3077},{"label":70,"count":2041},{"label":80,"count":1965},{"label":90,"count":1919},{"label":100,"count":1871},{"label":110,"count":1}]},{"identifier":"caste","label":"Caste","display":"ListFacet","type":"RefinementSelectFacet","entries":[{"label":"All","count":3935},{"label":"Scheduled Caste (SC)","count":382},{"label":"Scheduled Tribe (ST)","count":328},{"label":"Other Backward Class (OBC)","count":182},{"label":"General","count":66},{"label":"Particularly Vulnerable Tribal Group (PVTG)","count":39},{"label":"De-Notified, Nomadic, and Semi-Nomadic (DNT) communities","count":13}]},{"identifier":"nodalMinistryName","label":"Ministry Name","display":"ComboBoxFacet","type":"RefinementSelectFacet","entries":[{"label":"Ministry Of Social Justice and Empowerment","count":107},{"label":"Ministry of Education","count":83},{"label":"Ministry Of Science And Technology","count":68},{"label":"Ministry Of Agriculture and Farmers Welfare","count":44},{"label":"Ministry Of Commerce And Industry","count":33},{"label":"Ministry Of Micro, Small and Medium Enterprises","count":31},{"label":"Ministry of Electronics and Information Technology","count":21},{"label":"Ministry Of Home Affairs","count":19},{"label":"Ministry Of Finance","count":18},{"label":"Ministry Of Textiles","count":18},{"label":"Ministry Of Health & Family Welfare","count":16},{"label":"Ministry Of Defence","count":15},{"label":"Ministry of Fisheries,Animal Husbandry and Dairying","count":14},{"label":"Ministry Of Culture","count":13},{"label":"Ministry Of Labour and Employment","count":12},{"label":"Ministry Of Minority Affairs","count":11},{"label":"Ministry Of Rural Development","count":11},{"label":"Ministry Of Ayush","count":10},{"label":"Ministry Of Tribal Affairs","count":9},{"label":"Ministry Of Youth Affairs & Sports","count":9},{"label":"Ministry of Women and Child Development","count":8},{"label":"Ministry Of Communication","count":7},{"label":"Ministry Of New and Renewable Energy","count":7},{"label":"Ministry Of Skill Development And Entrepreneurship","count":7},{"label":"Ministry Of Jal Shakti","count":6},{"label":"Ministry Of Tourism","count":6},{"label":"Ministry Of External Affairs","count":5},{"label":"Ministry Of Housing & Urban Affairs","count":5},{"label":"Ministry Of Personnel, Public Grievances And Pensions","count":5},{"label":"Ministry of Ports,Shipping and Waterways","count":4},{"label":"Ministry Of Chemicals And Fertilizers","count":3},{"label":"Ministry Of Law and Justice","count":3},{"label":"Ministry Of Petroleum and Natural Gas","count":3},{"label":"Ministry Of Statistics and Programme Implementation","count":3},{"label":"Ministry of Corporate Affairs","count":3},{"label":"Comptroller And Auditor General Of India","count":2},{"label":"Ministry Of Environment,forests and climate change","count":2},{"label":"Ministry Of Panchayati Raj","count":2},{"label":"Ministry Of Road Transport & Highways","count":2},{"label":"Ministry Of Steel","count":2},{"label":"Ministry of Heavy Industries","count":2},{"label":"Ministry Of Consumer Affairs, Food And Public Distribution","count":1},{"label":"Ministry Of Development Of North Eastern Region","count":1},{"label":"Ministry Of Earth Sciences","count":1},{"label":"Ministry Of Information And Broadcasting","count":1},{"label":"Ministry Of Mines","count":1},{"label":"Ministry Of Power","count":1},{"label":"Ministry Of Railways","count":1},{"label":"Ministry of Food Processing Industries","count":1},{"label":"NITI Aayog (National Institution for Transforming India)","count":1},{"label":"The Lokpal of India","count":1}]},{"identifier":"level","label":"Level","display":"ListFacet","type":"RefinementSelectFacet","entries":[{"label":"State","count":4024},{"label":"Central","count":659}]},{"identifier":"residence","label":"Residence","display":"ListFacet","type":"RefinementSelectFacet","entries":[{"label":"Both","count":4448},{"label":"Rural","count":205},{"label":"Urban","count":41}]},{"identifier":"minority","label":"Minority","type":"CustomFacet","display":"SingleCheckBoxFacet","entries":[{"label":"No","count":4616},{"label":"Yes","count":67}]},{"identifier":"disability","label":"Differently Abled","type":"CustomFacet","display":"SingleCheckBoxFacet","entries":[{"label":"No","count":4385},{"label":"Yes","count":298}]},{"identifier":"benefitTypes","label":"Benefit Type","display":"ListFacet","type":"RefinementSelectFacet","entries":[{"label":"Cash","count":3247},{"label":"In Kind","count":785},{"label":"Composite","count":651}]},{"identifier":"dbtScheme","label":"DBT Scheme","type":"CustomFacet","display":"SingleCheckBoxFacet","entries":[{"label":"No","count":4218},{"label":"Yes","count":465}]},{"identifier":"maritalStatus","label":"Marital Status","display":"ListFacet","type":"RefinementSelectFacet","entries":[{"label":"All","count":4383},{"label":"Never Married","count":145},{"label":"Widowed","count":104},{"label":"Married","count":92},{"label":"Divorced","count":49},{"label":"Separated","count":48}]},{"identifier":"disabilityPercentage","label":"Disability Percentage","display":"ComboBoxFacet","type":"RangeFacet","entries":[{"label":0,"count":23},{"label":10,"count":26},{"label":20,"count":30},{"label":30,"count":30},{"label":40,"count":163},{"label":50,"count":168},{"label":60,"count":174},{"label":70,"count":179},{"label":80,"count":191},{"label":90,"count":191},{"label":100,"count":201}]},{"identifier":"isBpl","label":"Below Poverty Line","type":"CustomFacet","display":"SingleCheckBoxFacet","entries":[{"label":"No","count":4514},{"label":"Yes","count":169}]},{"identifier":"isEconomicDistress","label":"Economic Distress","type":"CustomFacet","display":"SingleCheckBoxFacet","entries":[{"label":"No","count":4637},{"label":"Yes","count":46}]},{"identifier":"isGovEmployee","label":"Government Employee","type":"CustomFacet","display":"SingleCheckBoxFacet","entries":[{"label":"No","count":4670},{"label":"Yes","count":13}]},{"identifier":"employmentStatus","label":"Employment Status","display":"ListFacet","type":"RefinementSelectFacet","entries":[{"label":"All","count":3556},{"label":"Employed","count":533},{"label":"Self-Employed/ Entrepreneur","count":422},{"label":"Unemployed","count":172}]},{"identifier":"isStudent","label":"Student","type":"CustomFacet","display":"SingleCheckBoxFacet","entries":[{"label":"No","count":4326},{"label":"Yes","count":357}]},{"identifier":"occupation","label":"Occupation","display":"ComboBoxFacet","type":"RefinementSelectFacet","entries":[{"label":"All","count":390},{"label":"Farmer","count":354},{"label":"Construction Worker","count":287},{"label":"Unorganized Worker","count":191},{"label":"Fishermen","count":119},{"label":"Artists","count":83},{"label":"Artisans, Spinners & Weavers","count":77},{"label":"Student","count":66},{"label":"Organized Worker","count":40},{"label":"Sportsperson","count":29},{"label":"Ex Servicemen","count":28},{"label":"Journalist","count":22},{"label":"Dairy Farmer","count":21},{"label":"Safai Karamchari","count":18},{"label":"Teacher / Faculty","count":13},{"label":"Coir Worker","count":6},{"label":"Street Vendor","count":3},{"label":"Health Worker","count":2},{"label":"Khadi Artisan","count":2},{"label":"Lawyer / Law Graduate / Advocate","count":2}]},{"identifier":"applicationMode","label":"Application Mode","display":"ListFacet","type":"RefinementSelectFacet","entries":[{"label":"Offline","count":2699},{"label":"Online","count":2296},{"label":"Online - via CSC","count":161}]},{"identifier":"schemeType","label":"Scheme Type","display":"ListFacet","type":"RefinementSelectFacet","entries":[{"label":"Central Sector Scheme","count":476},{"label":"Centrally Sponsored Scheme","count":106}]}],"hits":{"items":[{"id":"haGzF5gBXu-iUKXqH3SS","fields":{"beneficiaryState":["All"],"schemeShortTitle":"NOS-SWD","level":"Central","schemeFor":"Individual","nodalMinistryName":"Ministry Of Social Justice and Empowerment","schemeCategory":["Education & Learning","Social welfare & Empowerment"],"schemeName":"National Overseas Scholarship For Students With Disabilities","schemeCloseDate":null,"priority":1,"slug":"nos-swd","briefDescription":"A scholarship scheme by the Ministry of Social Justice & Empowerment for regular, full-time students with disabilities to obtain higher education viz., Master's degree, or Ph.D. courses from foreign universities, in one of the specified fields of study.","tags":["Scholarship","Student","Person With Disability","Higher Education","Degree","Empowerment","PhD","Post-Graduation"]},"highlight":{}},{"id":"VxezF5gB5uF80_MGIY8p","fields":{"beneficiaryState":["All"],"schemeShortTitle":"RMEWF","level":"Central","schemeFor":"Individual","nodalMinistryName":"Ministry Of Defence","schemeCategory":["Health & Wellness"],"schemeName":"RMEWF-Financial Assistance For Medical Treatment Of Ex-Servicemen","schemeCloseDate":null,"priority":1,"slug":"rmewf","briefDescription":"A scheme to provide financial assistance to a non-pensioner Ex-Servicemen/widows of ranks up to Havildar/equivalent to meet routine medical expenses.\n","tags":["Ex-Servicemen","Health Checkup","Medical Expenses","Health Treatment","Widow Of Ex-Servicemen"]},"highlight":{}},{"id":"usazF5gB0AGc0F0iKDMj","fields":{"beneficiaryState":["All"],"schemeShortTitle":"WOS-C","level":"Central","schemeFor":"Individual","nodalMinistryName":"Ministry Of Science And Technology","schemeCategory":["Skills & Employment","Social welfare & Empowerment","Science, IT & Communications","Women and Child"],"schemeName":"Women Scientist Scheme-C","schemeCloseDate":null,"priority":1,"slug":"wos-c","briefDescription":"A scheme by MoST for female candidates with a break in their career interested in addressing societal challenges through viable S&T interventions. 1-year training is provided in Intellectual Property Rights (IPRs), patent search, know-how, drafting, filing, trademarks, trade secrets, and copyright.","tags":["Women","Scientist","Science","Technology","Post-graduation","Skill"]},"highlight":{}},{"id":"LBezF5gB5uF80_MGGY81","fields":{"beneficiaryState":["All"],"schemeShortTitle":"SUPI","level":"Central","schemeFor":"Individual","nodalMinistryName":"Ministry Of Finance","schemeCategory":["Business & Entrepreneurship","Banking,Financial Services and Insurance","Social welfare & Empowerment"],"schemeName":"Stand-Up India","schemeCloseDate":"2025-03-31","priority":1,"slug":"sui","briefDescription":"A scheme by Ministry of Finance for financing SC/ST and  Women Entrepreneurs by facilitating bank loans for setting up a greenfield project  Enterprise in manufacturing, services, trading sector and activities allied to agriculture.","tags":["Loan","Entrepreneur","Finance","Business"]},"highlight":{}},{"id":"TRezF5gB5uF80_MGII9K","fields":{"beneficiaryState":["All"],"schemeShortTitle":"PMSBY","level":"Central","schemeFor":"Individual","nodalMinistryName":"Ministry Of Finance","schemeCategory":["Banking,Financial Services and Insurance"],"schemeName":"Pradhan Mantri Suraksha Bima Yojana","schemeCloseDate":null,"priority":1,"slug":"pmsby","briefDescription":"An Accident Insurance Scheme offering accidental death and disability cover for death or disability on account of an accident.","tags":["Bank Account Holders","Insurance","Accident Insurance","Death Insurance"]},"highlight":{}},{"id":"TBezF5gB5uF80_MGII9G","fields":{"beneficiaryState":["All"],"schemeShortTitle":"RMEWF-DISABLED CHILD","level":"Central","schemeFor":"Individual","nodalMinistryName":"Ministry Of Defence","schemeCategory":["Social welfare & Empowerment"],"schemeName":"RMEWF-Financial Assistance To 100% Disabled Child Of Ex-Servicemen","schemeCloseDate":null,"priority":1,"slug":"rmewf-disabled-child","briefDescription":"A scheme to provide financial assistance to Ex-Servicemen or their widows for their 100% disabled child.","tags":["Ex-Servicemen","Widow Of Ex-Servicemen","Differently Abled"]},"highlight":{}},{"id":"naGzF5gBXu-iUKXqInRl","fields":{"beneficiaryState":["All"],"schemeShortTitle":"POST-DIS","level":"Central","schemeFor":"Individual","nodalMinistryName":"Ministry Of Social Justice and Empowerment","schemeCategory":["Education & Learning","Social welfare & Empowerment"],"schemeName":"Post Matric Scholarship Students With Disabilities","schemeCloseDate":null,"priority":1,"slug":"post-dis","briefDescription":"A scholarship scheme by DoEPwD for students with disabilities pursuing a post-matric qualification from UGC/AICTE recognized universities, i.e. students of Class 11th, Class 12th, including Polytechnics, Post-Matriculation Diploma/Certificates and Bachelor’s/Master’s Degree/Diploma in India.","tags":["Persons With Disability","Post-Matric","Student","Scholarship","Diploma","Degree","Graduation","Post-Graduation"]},"highlight":{}},{"id":"msazF5gB0AGc0F0iHTN4","fields":{"beneficiaryState":["All"],"schemeShortTitle":"SL","level":"Central","schemeFor":"Individual","nodalMinistryName":"Ministry Of Skill Development And Entrepreneurship","schemeCategory":["Skills & Employment","Banking,Financial Services and Insurance"],"schemeName":"Skill Loan Scheme","schemeCloseDate":null,"priority":1,"slug":"sl","briefDescription":"A Skill loan scheme by Ministry of Skill Development and Entrepreneurship to provide loan upto Rs. 1,50,000 to student who has secured admission in a course run by Industrial Training Institutes (ITIs), Polytechnics or in a school recognized by Central or State education Boards or in a college affil","tags":["Skill Development","Student","Industrial Training Institutes (ITIs)","Polytechnics"]},"highlight":{}},{"id":"ZaGzF5gBXu-iUKXqF3T9","fields":{"beneficiaryState":["All"],"schemeShortTitle":"NPS-TSEP","level":"Central","schemeFor":"Individual","nodalMinistryName":"Ministry Of Labour and Employment","schemeCategory":["Banking,Financial Services and Insurance"],"schemeName":"National Pension Scheme For Traders And Self Employed Persons","schemeCloseDate":null,"priority":1,"slug":"nps-tsep","briefDescription":"A voluntary and contributory pension scheme by the Ministry of Labour and Employment. This scheme is meant for old age protection and social security of Small Scale Traders and Retailers. The beneficiary would receive a minimum assured pension of ₹ 3000/- per month after attaining the age of 60 yrs.","tags":["Pension","Employment","Self Employment","Traders"]},"highlight":{}},{"id":"OhezF5gB5uF80_MGHY91","fields":{"beneficiaryState":["All"],"schemeShortTitle":"RMEWF -VOCATIONAL TRAINING","level":"Central","schemeFor":"Individual","nodalMinistryName":"Ministry Of Defence","schemeCategory":["Education & Learning","Women and Child"],"schemeName":"RMEWF-Financial Assistance For Vocational Training Of Widows Of Ex-Servicemen","schemeCloseDate":null,"priority":1,"slug":"rmewf-vocational-training","briefDescription":"A scheme to provide financial assistance to a widow of Ex-Servicemen to settle in life through vocational training.\n","tags":["Widows Of Ex-Servicemen","Vocational Training","Grant"]},"highlight":{}}],"page":{"total":4683,"totalPages":469,"pageNumber":0,"from":0,"size":10}},"sortedBy":"multiple_sort"}}